[
  {
    "id": "9ff42b3bfedc41faa3f15ac9401143ff",
    "items": [],
    "created_at": "2016-01-19T18:29:14.539649Z",
    "last_modified_at": "2016-01-19T20:00:22.292418Z",
    "comment": "Comment",
    "date_time": "1994-12-02T00:00:00Z",
    "amount": "12.00",
    "adjustment": "1.00",
    "user": 1,
    "payee": null
  },
  {
    "id": "fc2cd785fd804d0f91c9bf89ab62812c",
    "items": [
      {
        "id": "ca88f7f53d584abb801dd1341794f0f5",
        "created_at": "2016-01-19T20:52:42.748271Z",
        "last_modified_at": "2016-01-19T20:52:42.748325Z",
        "comment": "44",
        "description": "Coffee",
        "in_bill_number": 0,
        "amount": "22.00",
        "bill": "fc2cd785fd804d0f91c9bf89ab62812c",
        "tags": [
          "475dbe3142eb41ad817ed89ce64ce1a3"
        ]
      }
    ],
    "created_at": "2016-01-19T20:16:10.185759Z",
    "last_modified_at": "2016-01-19T20:52:42.479439Z",
    "comment": "12",
    "date_time": "2016-01-20T12:00:00Z",
    "amount": "10.00",
    "adjustment": "10.00",
    "user": 1,
    "payee": "2931aab912dc48f899ff9364ca31be45"
  },
  {
    "id": "09f1c7555a5847c492a71e2da57d32c0",
    "items": [],
    "created_at": "2016-01-19T20:16:27.396759Z",
    "last_modified_at": "2016-01-19T20:16:27.397228Z",
    "comment": "12",
    "date_time": "2016-01-20T12:00:00Z",
    "amount": "12.00",
    "adjustment": "1.00",
    "user": 1,
    "payee": "2931aab912dc48f899ff9364ca31be45"
  },
  {
    "id": "f8d6e3b7c8a94ec38411d004ae4d29c8",
    "items": [],
    "created_at": "2016-01-19T20:53:27.118970Z",
    "last_modified_at": "2016-01-19T20:53:27.119062Z",
    "comment": "15",
    "date_time": "2016-01-20T12:00:00Z",
    "amount": "10.00",
    "adjustment": "10.00",
    "user": 1,
    "payee": "2931aab912dc48f899ff9364ca31be45"
  },
  {
    "id": "46cefb2db46c4612b18c3a7c0bd66ba9",
    "items": [],
    "created_at": "2016-01-19T20:56:08.363040Z",
    "last_modified_at": "2016-01-19T20:56:08.363105Z",
    "comment": "16",
    "date_time": "2016-01-20T12:00:00Z",
    "amount": "10.00",
    "adjustment": "10.00",
    "user": 1,
    "payee": "2931aab912dc48f899ff9364ca31be45"
  },
  {
    "id": "c223f584e49b4f07b5d96c5bf205d448",
    "items": [
      {
        "id": "007a4a35a8fe4c4a8406bfb19cbba5c7",
        "created_at": "2016-01-19T20:58:39.617534Z",
        "last_modified_at": "2016-01-19T20:58:39.617630Z",
        "comment": "44",
        "description": "Coffee",
        "in_bill_number": 0,
        "amount": "22.00",
        "bill": "c223f584e49b4f07b5d96c5bf205d448",
        "tags": [
          "475dbe3142eb41ad817ed89ce64ce1a3"
        ]
      }
    ],
    "created_at": "2016-01-19T20:58:39.493333Z",
    "last_modified_at": "2016-01-19T20:58:39.493417Z",
    "comment": "17",
    "date_time": "2016-01-20T12:00:00Z",
    "amount": "10.00",
    "adjustment": "10.00",
    "user": 1,
    "payee": "2931aab912dc48f899ff9364ca31be45"
  }
]
